%YAML 1.1
%TAG !u! tag:unity3d.com,2011:
--- !u!162 &1
EditorUserSettings:
  m_ObjectHideFlags: 0
  serializedVersion: 4
  m_ConfigSettings:
    RecentlyUsedSceneGuid-0:
      value: 575507075504510954085b7449705c44454f1e287f707365797e1e36b0e16d6f
      flags: 0
    RecentlyUsedSceneGuid-1:
      value: 5105000703075908080f0d7243250744124f41297c7e7e602c714b32b6b6656d
      flags: 0
    RecentlyUsedSceneGuid-2:
      value: 5b045200520058080b5e5e2713275b444715197a2a2e7661747a4937e0b76461
      flags: 0
    RecentlyUsedSceneGuid-3:
      value: 0155045e04575f0f5b5e592314765e4444161b2f7c78706178284f37b0e36568
      flags: 0
    RecentlyUsedSceneGuid-4:
      value: 0255055157075c0e0b0c0e2012255a44134f4a2c2d717f622c7d4b65b5e6373a
      flags: 0
    RecentlyUsedSceneGuid-5:
      value: 5209055704050a035f5c087011755c4443154d2e7d7c75652f2f4a37b2b7306a
      flags: 0
    RecentlyUsedSceneGuid-6:
      value: 05030703550d0a5f080c0823467b0b444f151b7b797f7661797d4b60e6b4313d
      flags: 0
    RecentlyUsedSceneGuid-7:
      value: 010602505d51595d5c080a72457a5b44454e4b737d7f7469287b4532b6b7363b
      flags: 0
    RecentlyUsedSceneGuid-8:
      value: 5a5757560101590a5d0c0e24427b5d44434e4c7a7b7a23677f2b4565b7b5353a
      flags: 0
    vcSharedLogLevel:
      value: 0d5e400f0650
      flags: 0
  m_VCAutomaticAdd: 1
  m_VCDebugCom: 0
  m_VCDebugCmd: 0
  m_VCDebugOut: 0
  m_SemanticMergeMode: 2
  m_DesiredImportWorkerCount: 3
  m_StandbyImportWorkerCount: 2
  m_IdleImportWorkerShutdownDelay: 60000
  m_VCShowFailedCheckout: 1
  m_VCOverwriteFailedCheckoutAssets: 1
  m_VCProjectOverlayIcons: 1
  m_VCHierarchyOverlayIcons: 1
  m_VCOtherOverlayIcons: 1
  m_VCAllowAsyncUpdate: 1
  m_ArtifactGarbageCollection: 1
