%YAML 1.1
%TAG !u! tag:unity3d.com,2011:
--- !u!114 &11400000
MonoBehaviour:
  m_ObjectHideFlags: 0
  m_CorrespondingSourceObject: {fileID: 0}
  m_PrefabInstance: {fileID: 0}
  m_PrefabAsset: {fileID: 0}
  m_GameObject: {fileID: 0}
  m_Enabled: 1
  m_EditorHideFlags: 0
  m_Script: {fileID: 11500000, guid: bf2edee5c58d82540a51f03df9d42094, type: 3}
  m_Name: Ultra_PipelineAsset
  m_EditorClassIdentifier: 
  k_AssetVersion: 9
  k_AssetPreviousVersion: 9
  m_RendererType: 1
  m_RendererData: {fileID: 0}
  m_RendererDataList:
  - {fileID: 11400000, guid: 25d9f6a956d6b8a4986fbea1d681c647, type: 2}
  m_DefaultRendererIndex: 0
  m_RequireDepthTexture: 1
  m_RequireOpaqueTexture: 0
  m_OpaqueDownsampling: 1
  m_SupportsTerrainHoles: 1
  m_StoreActionsOptimization: 0
  m_SupportsHDR: 1
  m_MSAA: 2
  m_RenderScale: 1
  m_UpscalingFilter: 0
  m_FsrOverrideSharpness: 0
  m_FsrSharpness: 0.92
  m_MainLightRenderingMode: 1
  m_MainLightShadowsSupported: 1
  m_MainLightShadowmapResolution: 4096
  m_AdditionalLightsRenderingMode: 1
  m_AdditionalLightsPerObjectLimit: 4
  m_AdditionalLightShadowsSupported: 1
  m_AdditionalLightsShadowmapResolution: 4096
  m_AdditionalLightsShadowResolutionTierLow: 256
  m_AdditionalLightsShadowResolutionTierMedium: 512
  m_AdditionalLightsShadowResolutionTierHigh: 1024
  m_ReflectionProbeBlending: 1
  m_ReflectionProbeBoxProjection: 1
  m_ShadowDistance: 150
  m_ShadowCascadeCount: 4
  m_Cascade2Split: 0.33333334
  m_Cascade3Split: {x: 0.1, y: 0.3}
  m_Cascade4Split: {x: 0.06666667, y: 0.2, z: 0.46666667}
  m_CascadeBorder: 0.2
  m_ShadowDepthBias: 1
  m_ShadowNormalBias: 1
  m_AnyShadowsSupported: 1
  m_SoftShadowsSupported: 1
  m_ConservativeEnclosingSphere: 0
  m_NumIterationsEnclosingSphere: 64
  m_AdditionalLightsCookieResolution: 2048
  m_AdditionalLightsCookieFormat: 3
  m_UseSRPBatcher: 1
  m_SupportsDynamicBatching: 0
  m_MixedLightingSupported: 1
  m_SupportsLightLayers: 0
  m_DebugLevel: 0
  m_UseAdaptivePerformance: 1
  m_ColorGradingMode: 0
  m_ColorGradingLutSize: 32
  m_UseFastSRGBLinearConversion: 0
  m_ShadowType: 1
  m_LocalShadowsSupported: 0
  m_LocalShadowsAtlasResolution: 256
  m_MaxPixelLights: 0
  m_ShadowAtlasResolution: 256
  m_ShaderVariantLogLevel: 0
  m_VolumeFrameworkUpdateMode: 0
  m_ShadowCascades: 0
